    ╔════════════════════════════════════╗
    ║             SP Project             ║
    ╟─────────────────┬──────────────────╢
    ║ Component Name  │ Number of Issues ║
    ╟─────────────────┼──────────────────╢
    ║ Backend         │        1         ║
    ╟─────────────────┼──────────────────╢
    ║ Synchronization │        2         ║
    ╟─────────────────┼──────────────────╢
    ║ Templates       │        5         ║
    ╚═════════════════╧══════════════════╝